('/home/zanic/docker/build/application/application.pkg',
 {'BINARY': True,
  'DATA': True,
  'EXECUTABLE': True,
  'EXTENSION': True,
  'PYMODULE': True,
  'PYSOURCE': True,
  'PYZ': False,
  'SPLASH': True},
 [('PYZ-00.pyz', '/home/zanic/docker/build/application/PYZ-00.pyz', 'PYZ'),
  ('struct',
   '/home/zanic/docker/build/application/localpycs/struct.pyc',
   'PYMODULE'),
  ('pyimod01_archive',
   '/home/zanic/docker/build/application/localpycs/pyimod01_archive.pyc',
   'PYMODULE'),
  ('pyimod02_importers',
   '/home/zanic/docker/build/application/localpycs/pyimod02_importers.pyc',
   'PYMODULE'),
  ('pyimod03_ctypes',
   '/home/zanic/docker/build/application/localpycs/pyimod03_ctypes.pyc',
   'PYMODULE'),
  ('pyiboot01_bootstrap',
   '/usr/local/lib/python3.10/dist-packages/PyInstaller/loader/pyiboot01_bootstrap.py',
   'PYSOURCE'),
  ('pyi_rth_inspect',
   '/usr/local/lib/python3.10/dist-packages/PyInstaller/hooks/rthooks/pyi_rth_inspect.py',
   'PYSOURCE'),
  ('pyi_rth_pkgutil',
   '/usr/local/lib/python3.10/dist-packages/PyInstaller/hooks/rthooks/pyi_rth_pkgutil.py',
   'PYSOURCE'),
  ('pyi_rth_multiprocessing',
   '/usr/local/lib/python3.10/dist-packages/PyInstaller/hooks/rthooks/pyi_rth_multiprocessing.py',
   'PYSOURCE'),
  ('application', '/home/zanic/docker/application.py', 'PYSOURCE'),
  ('libz.so.1', '/lib/x86_64-linux-gnu/libz.so.1', 'BINARY'),
  ('libexpat.so.1', '/lib/x86_64-linux-gnu/libexpat.so.1', 'BINARY'),
  ('lib-dynload/_opcode.cpython-310-x86_64-linux-gnu.so',
   '/usr/lib/python3.10/lib-dynload/_opcode.cpython-310-x86_64-linux-gnu.so',
   'EXTENSION'),
  ('lib-dynload/_hashlib.cpython-310-x86_64-linux-gnu.so',
   '/usr/lib/python3.10/lib-dynload/_hashlib.cpython-310-x86_64-linux-gnu.so',
   'EXTENSION'),
  ('lib-dynload/resource.cpython-310-x86_64-linux-gnu.so',
   '/usr/lib/python3.10/lib-dynload/resource.cpython-310-x86_64-linux-gnu.so',
   'EXTENSION'),
  ('lib-dynload/_lzma.cpython-310-x86_64-linux-gnu.so',
   '/usr/lib/python3.10/lib-dynload/_lzma.cpython-310-x86_64-linux-gnu.so',
   'EXTENSION'),
  ('lib-dynload/_bz2.cpython-310-x86_64-linux-gnu.so',
   '/usr/lib/python3.10/lib-dynload/_bz2.cpython-310-x86_64-linux-gnu.so',
   'EXTENSION'),
  ('lib-dynload/_ssl.cpython-310-x86_64-linux-gnu.so',
   '/usr/lib/python3.10/lib-dynload/_ssl.cpython-310-x86_64-linux-gnu.so',
   'EXTENSION'),
  ('lib-dynload/_contextvars.cpython-310-x86_64-linux-gnu.so',
   '/usr/lib/python3.10/lib-dynload/_contextvars.cpython-310-x86_64-linux-gnu.so',
   'EXTENSION'),
  ('lib-dynload/_decimal.cpython-310-x86_64-linux-gnu.so',
   '/usr/lib/python3.10/lib-dynload/_decimal.cpython-310-x86_64-linux-gnu.so',
   'EXTENSION'),
  ('lib-dynload/_multiprocessing.cpython-310-x86_64-linux-gnu.so',
   '/usr/lib/python3.10/lib-dynload/_multiprocessing.cpython-310-x86_64-linux-gnu.so',
   'EXTENSION'),
  ('lib-dynload/_posixshmem.cpython-310-x86_64-linux-gnu.so',
   '/usr/lib/python3.10/lib-dynload/_posixshmem.cpython-310-x86_64-linux-gnu.so',
   'EXTENSION'),
  ('lib-dynload/mmap.cpython-310-x86_64-linux-gnu.so',
   '/usr/lib/python3.10/lib-dynload/mmap.cpython-310-x86_64-linux-gnu.so',
   'EXTENSION'),
  ('lib-dynload/_ctypes.cpython-310-x86_64-linux-gnu.so',
   '/usr/lib/python3.10/lib-dynload/_ctypes.cpython-310-x86_64-linux-gnu.so',
   'EXTENSION'),
  ('lib-dynload/_queue.cpython-310-x86_64-linux-gnu.so',
   '/usr/lib/python3.10/lib-dynload/_queue.cpython-310-x86_64-linux-gnu.so',
   'EXTENSION'),
  ('lib-dynload/termios.cpython-310-x86_64-linux-gnu.so',
   '/usr/lib/python3.10/lib-dynload/termios.cpython-310-x86_64-linux-gnu.so',
   'EXTENSION'),
  ('lib-dynload/_multibytecodec.cpython-310-x86_64-linux-gnu.so',
   '/usr/lib/python3.10/lib-dynload/_multibytecodec.cpython-310-x86_64-linux-gnu.so',
   'EXTENSION'),
  ('lib-dynload/_codecs_jp.cpython-310-x86_64-linux-gnu.so',
   '/usr/lib/python3.10/lib-dynload/_codecs_jp.cpython-310-x86_64-linux-gnu.so',
   'EXTENSION'),
  ('lib-dynload/_codecs_kr.cpython-310-x86_64-linux-gnu.so',
   '/usr/lib/python3.10/lib-dynload/_codecs_kr.cpython-310-x86_64-linux-gnu.so',
   'EXTENSION'),
  ('lib-dynload/_codecs_iso2022.cpython-310-x86_64-linux-gnu.so',
   '/usr/lib/python3.10/lib-dynload/_codecs_iso2022.cpython-310-x86_64-linux-gnu.so',
   'EXTENSION'),
  ('lib-dynload/_codecs_cn.cpython-310-x86_64-linux-gnu.so',
   '/usr/lib/python3.10/lib-dynload/_codecs_cn.cpython-310-x86_64-linux-gnu.so',
   'EXTENSION'),
  ('lib-dynload/_codecs_tw.cpython-310-x86_64-linux-gnu.so',
   '/usr/lib/python3.10/lib-dynload/_codecs_tw.cpython-310-x86_64-linux-gnu.so',
   'EXTENSION'),
  ('lib-dynload/_codecs_hk.cpython-310-x86_64-linux-gnu.so',
   '/usr/lib/python3.10/lib-dynload/_codecs_hk.cpython-310-x86_64-linux-gnu.so',
   'EXTENSION'),
  ('lib-dynload/_uuid.cpython-310-x86_64-linux-gnu.so',
   '/usr/lib/python3.10/lib-dynload/_uuid.cpython-310-x86_64-linux-gnu.so',
   'EXTENSION'),
  ('_mysql_connector.cpython-310-x86_64-linux-gnu.so',
   '/usr/local/lib/python3.10/dist-packages/_mysql_connector.cpython-310-x86_64-linux-gnu.so',
   'EXTENSION'),
  ('lib-dynload/_json.cpython-310-x86_64-linux-gnu.so',
   '/usr/lib/python3.10/lib-dynload/_json.cpython-310-x86_64-linux-gnu.so',
   'EXTENSION'),
  ('_cffi_backend.cpython-310-x86_64-linux-gnu.so',
   '/usr/lib/python3/dist-packages/_cffi_backend.cpython-310-x86_64-linux-gnu.so',
   'EXTENSION'),
  ('cryptography/hazmat/bindings/_openssl.abi3.so',
   '/usr/lib/python3/dist-packages/cryptography/hazmat/bindings/_openssl.abi3.so',
   'EXTENSION'),
  ('bcrypt/_bcrypt.abi3.so',
   '/usr/lib/python3/dist-packages/bcrypt/_bcrypt.abi3.so',
   'EXTENSION'),
  ('libcrypto.so.3', '/lib/x86_64-linux-gnu/libcrypto.so.3', 'BINARY'),
  ('liblzma.so.5', '/lib/x86_64-linux-gnu/liblzma.so.5', 'BINARY'),
  ('libbz2.so.1.0', '/lib/x86_64-linux-gnu/libbz2.so.1.0', 'BINARY'),
  ('libssl.so.3', '/lib/x86_64-linux-gnu/libssl.so.3', 'BINARY'),
  ('libmpdec.so.3', '/lib/x86_64-linux-gnu/libmpdec.so.3', 'BINARY'),
  ('libffi.so.8', '/lib/x86_64-linux-gnu/libffi.so.8', 'BINARY'),
  ('libuuid.so.1', '/lib/x86_64-linux-gnu/libuuid.so.1', 'BINARY'),
  ('libgcc_s.so.1', '/lib/x86_64-linux-gnu/libgcc_s.so.1', 'BINARY'),
  ('libstdc++.so.6', '/lib/x86_64-linux-gnu/libstdc++.so.6', 'BINARY'),
  ('libpython3.10.so.1.0',
   '/usr/lib/x86_64-linux-gnu/libpython3.10.so.1.0',
   'BINARY'),
  ('base_library.zip',
   '/home/zanic/docker/build/application/base_library.zip',
   'DATA'),
  ('cryptography-3.4.8.egg-info/dependency_links.txt',
   '/usr/lib/python3/dist-packages/cryptography-3.4.8.egg-info/dependency_links.txt',
   'DATA'),
  ('cryptography-3.4.8.egg-info/requires.txt',
   '/usr/lib/python3/dist-packages/cryptography-3.4.8.egg-info/requires.txt',
   'DATA'),
  ('certifi/cacert.pem',
   '/usr/lib/python3/dist-packages/certifi/cacert.pem',
   'DATA'),
  ('cryptography-3.4.8.egg-info/not-zip-safe',
   '/usr/lib/python3/dist-packages/cryptography-3.4.8.egg-info/not-zip-safe',
   'DATA'),
  ('cryptography-3.4.8.egg-info/top_level.txt',
   '/usr/lib/python3/dist-packages/cryptography-3.4.8.egg-info/top_level.txt',
   'DATA'),
  ('cryptography-3.4.8.egg-info/PKG-INFO',
   '/usr/lib/python3/dist-packages/cryptography-3.4.8.egg-info/PKG-INFO',
   'DATA')],
 False,
 False,
 False,
 [],
 None,
 None,
 None)
