('/home/zanic/docker/build/application/PYZ-00.pyz',
 [('OpenSSL', '/usr/lib/python3/dist-packages/OpenSSL/__init__.py', 'PYMODULE'),
  ('OpenSSL.SSL', '/usr/lib/python3/dist-packages/OpenSSL/SSL.py', 'PYMODULE'),
  ('OpenSSL._util',
   '/usr/lib/python3/dist-packages/OpenSSL/_util.py',
   'PYMODULE'),
  ('OpenSSL.crypto',
   '/usr/lib/python3/dist-packages/OpenSSL/crypto.py',
   'PYMODULE'),
  ('OpenSSL.version',
   '/usr/lib/python3/dist-packages/OpenSSL/version.py',
   'PYMODULE'),
  ('__future__', '/usr/lib/python3.10/__future__.py', 'PYMODULE'),
  ('_compat_pickle', '/usr/lib/python3.10/_compat_pickle.py', 'PYMODULE'),
  ('_compression', '/usr/lib/python3.10/_compression.py', 'PYMODULE'),
  ('_py_abc', '/usr/lib/python3.10/_py_abc.py', 'PYMODULE'),
  ('_pydecimal', '/usr/lib/python3.10/_pydecimal.py', 'PYMODULE'),
  ('_strptime', '/usr/lib/python3.10/_strptime.py', 'PYMODULE'),
  ('_threading_local', '/usr/lib/python3.10/_threading_local.py', 'PYMODULE'),
  ('argparse', '/usr/lib/python3.10/argparse.py', 'PYMODULE'),
  ('ast', '/usr/lib/python3.10/ast.py', 'PYMODULE'),
  ('base64', '/usr/lib/python3.10/base64.py', 'PYMODULE'),
  ('bcrypt', '/usr/lib/python3/dist-packages/bcrypt/__init__.py', 'PYMODULE'),
  ('bcrypt.__about__',
   '/usr/lib/python3/dist-packages/bcrypt/__about__.py',
   'PYMODULE'),
  ('bisect', '/usr/lib/python3.10/bisect.py', 'PYMODULE'),
  ('bz2', '/usr/lib/python3.10/bz2.py', 'PYMODULE'),
  ('calendar', '/usr/lib/python3.10/calendar.py', 'PYMODULE'),
  ('certifi', '/usr/lib/python3/dist-packages/certifi/__init__.py', 'PYMODULE'),
  ('certifi.core',
   '/usr/lib/python3/dist-packages/certifi/core.py',
   'PYMODULE'),
  ('chardet', '/usr/lib/python3/dist-packages/chardet/__init__.py', 'PYMODULE'),
  ('chardet.big5freq',
   '/usr/lib/python3/dist-packages/chardet/big5freq.py',
   'PYMODULE'),
  ('chardet.big5prober',
   '/usr/lib/python3/dist-packages/chardet/big5prober.py',
   'PYMODULE'),
  ('chardet.chardistribution',
   '/usr/lib/python3/dist-packages/chardet/chardistribution.py',
   'PYMODULE'),
  ('chardet.charsetgroupprober',
   '/usr/lib/python3/dist-packages/chardet/charsetgroupprober.py',
   'PYMODULE'),
  ('chardet.charsetprober',
   '/usr/lib/python3/dist-packages/chardet/charsetprober.py',
   'PYMODULE'),
  ('chardet.codingstatemachine',
   '/usr/lib/python3/dist-packages/chardet/codingstatemachine.py',
   'PYMODULE'),
  ('chardet.cp949prober',
   '/usr/lib/python3/dist-packages/chardet/cp949prober.py',
   'PYMODULE'),
  ('chardet.enums',
   '/usr/lib/python3/dist-packages/chardet/enums.py',
   'PYMODULE'),
  ('chardet.escprober',
   '/usr/lib/python3/dist-packages/chardet/escprober.py',
   'PYMODULE'),
  ('chardet.escsm',
   '/usr/lib/python3/dist-packages/chardet/escsm.py',
   'PYMODULE'),
  ('chardet.eucjpprober',
   '/usr/lib/python3/dist-packages/chardet/eucjpprober.py',
   'PYMODULE'),
  ('chardet.euckrfreq',
   '/usr/lib/python3/dist-packages/chardet/euckrfreq.py',
   'PYMODULE'),
  ('chardet.euckrprober',
   '/usr/lib/python3/dist-packages/chardet/euckrprober.py',
   'PYMODULE'),
  ('chardet.euctwfreq',
   '/usr/lib/python3/dist-packages/chardet/euctwfreq.py',
   'PYMODULE'),
  ('chardet.euctwprober',
   '/usr/lib/python3/dist-packages/chardet/euctwprober.py',
   'PYMODULE'),
  ('chardet.gb2312freq',
   '/usr/lib/python3/dist-packages/chardet/gb2312freq.py',
   'PYMODULE'),
  ('chardet.gb2312prober',
   '/usr/lib/python3/dist-packages/chardet/gb2312prober.py',
   'PYMODULE'),
  ('chardet.hebrewprober',
   '/usr/lib/python3/dist-packages/chardet/hebrewprober.py',
   'PYMODULE'),
  ('chardet.jisfreq',
   '/usr/lib/python3/dist-packages/chardet/jisfreq.py',
   'PYMODULE'),
  ('chardet.jpcntx',
   '/usr/lib/python3/dist-packages/chardet/jpcntx.py',
   'PYMODULE'),
  ('chardet.langbulgarianmodel',
   '/usr/lib/python3/dist-packages/chardet/langbulgarianmodel.py',
   'PYMODULE'),
  ('chardet.langgreekmodel',
   '/usr/lib/python3/dist-packages/chardet/langgreekmodel.py',
   'PYMODULE'),
  ('chardet.langhebrewmodel',
   '/usr/lib/python3/dist-packages/chardet/langhebrewmodel.py',
   'PYMODULE'),
  ('chardet.langrussianmodel',
   '/usr/lib/python3/dist-packages/chardet/langrussianmodel.py',
   'PYMODULE'),
  ('chardet.langthaimodel',
   '/usr/lib/python3/dist-packages/chardet/langthaimodel.py',
   'PYMODULE'),
  ('chardet.langturkishmodel',
   '/usr/lib/python3/dist-packages/chardet/langturkishmodel.py',
   'PYMODULE'),
  ('chardet.latin1prober',
   '/usr/lib/python3/dist-packages/chardet/latin1prober.py',
   'PYMODULE'),
  ('chardet.mbcharsetprober',
   '/usr/lib/python3/dist-packages/chardet/mbcharsetprober.py',
   'PYMODULE'),
  ('chardet.mbcsgroupprober',
   '/usr/lib/python3/dist-packages/chardet/mbcsgroupprober.py',
   'PYMODULE'),
  ('chardet.mbcssm',
   '/usr/lib/python3/dist-packages/chardet/mbcssm.py',
   'PYMODULE'),
  ('chardet.sbcharsetprober',
   '/usr/lib/python3/dist-packages/chardet/sbcharsetprober.py',
   'PYMODULE'),
  ('chardet.sbcsgroupprober',
   '/usr/lib/python3/dist-packages/chardet/sbcsgroupprober.py',
   'PYMODULE'),
  ('chardet.sjisprober',
   '/usr/lib/python3/dist-packages/chardet/sjisprober.py',
   'PYMODULE'),
  ('chardet.universaldetector',
   '/usr/lib/python3/dist-packages/chardet/universaldetector.py',
   'PYMODULE'),
  ('chardet.utf8prober',
   '/usr/lib/python3/dist-packages/chardet/utf8prober.py',
   'PYMODULE'),
  ('chardet.version',
   '/usr/lib/python3/dist-packages/chardet/version.py',
   'PYMODULE'),
  ('concurrent', '/usr/lib/python3.10/concurrent/__init__.py', 'PYMODULE'),
  ('concurrent.futures',
   '/usr/lib/python3.10/concurrent/futures/__init__.py',
   'PYMODULE'),
  ('concurrent.futures._base',
   '/usr/lib/python3.10/concurrent/futures/_base.py',
   'PYMODULE'),
  ('concurrent.futures.process',
   '/usr/lib/python3.10/concurrent/futures/process.py',
   'PYMODULE'),
  ('concurrent.futures.thread',
   '/usr/lib/python3.10/concurrent/futures/thread.py',
   'PYMODULE'),
  ('configparser', '/usr/lib/python3.10/configparser.py', 'PYMODULE'),
  ('contextlib', '/usr/lib/python3.10/contextlib.py', 'PYMODULE'),
  ('contextvars', '/usr/lib/python3.10/contextvars.py', 'PYMODULE'),
  ('copy', '/usr/lib/python3.10/copy.py', 'PYMODULE'),
  ('cryptography',
   '/usr/lib/python3/dist-packages/cryptography/__init__.py',
   'PYMODULE'),
  ('cryptography.__about__',
   '/usr/lib/python3/dist-packages/cryptography/__about__.py',
   'PYMODULE'),
  ('cryptography.exceptions',
   '/usr/lib/python3/dist-packages/cryptography/exceptions.py',
   'PYMODULE'),
  ('cryptography.hazmat',
   '/usr/lib/python3/dist-packages/cryptography/hazmat/__init__.py',
   'PYMODULE'),
  ('cryptography.hazmat._der',
   '/usr/lib/python3/dist-packages/cryptography/hazmat/_der.py',
   'PYMODULE'),
  ('cryptography.hazmat._oid',
   '/usr/lib/python3/dist-packages/cryptography/hazmat/_oid.py',
   'PYMODULE'),
  ('cryptography.hazmat._types',
   '/usr/lib/python3/dist-packages/cryptography/hazmat/_types.py',
   'PYMODULE'),
  ('cryptography.hazmat.backends',
   '/usr/lib/python3/dist-packages/cryptography/hazmat/backends/__init__.py',
   'PYMODULE'),
  ('cryptography.hazmat.backends.interfaces',
   '/usr/lib/python3/dist-packages/cryptography/hazmat/backends/interfaces.py',
   'PYMODULE'),
  ('cryptography.hazmat.backends.openssl',
   '/usr/lib/python3/dist-packages/cryptography/hazmat/backends/openssl/__init__.py',
   'PYMODULE'),
  ('cryptography.hazmat.backends.openssl.aead',
   '/usr/lib/python3/dist-packages/cryptography/hazmat/backends/openssl/aead.py',
   'PYMODULE'),
  ('cryptography.hazmat.backends.openssl.backend',
   '/usr/lib/python3/dist-packages/cryptography/hazmat/backends/openssl/backend.py',
   'PYMODULE'),
  ('cryptography.hazmat.backends.openssl.ciphers',
   '/usr/lib/python3/dist-packages/cryptography/hazmat/backends/openssl/ciphers.py',
   'PYMODULE'),
  ('cryptography.hazmat.backends.openssl.cmac',
   '/usr/lib/python3/dist-packages/cryptography/hazmat/backends/openssl/cmac.py',
   'PYMODULE'),
  ('cryptography.hazmat.backends.openssl.decode_asn1',
   '/usr/lib/python3/dist-packages/cryptography/hazmat/backends/openssl/decode_asn1.py',
   'PYMODULE'),
  ('cryptography.hazmat.backends.openssl.dh',
   '/usr/lib/python3/dist-packages/cryptography/hazmat/backends/openssl/dh.py',
   'PYMODULE'),
  ('cryptography.hazmat.backends.openssl.dsa',
   '/usr/lib/python3/dist-packages/cryptography/hazmat/backends/openssl/dsa.py',
   'PYMODULE'),
  ('cryptography.hazmat.backends.openssl.ec',
   '/usr/lib/python3/dist-packages/cryptography/hazmat/backends/openssl/ec.py',
   'PYMODULE'),
  ('cryptography.hazmat.backends.openssl.ed25519',
   '/usr/lib/python3/dist-packages/cryptography/hazmat/backends/openssl/ed25519.py',
   'PYMODULE'),
  ('cryptography.hazmat.backends.openssl.ed448',
   '/usr/lib/python3/dist-packages/cryptography/hazmat/backends/openssl/ed448.py',
   'PYMODULE'),
  ('cryptography.hazmat.backends.openssl.encode_asn1',
   '/usr/lib/python3/dist-packages/cryptography/hazmat/backends/openssl/encode_asn1.py',
   'PYMODULE'),
  ('cryptography.hazmat.backends.openssl.hashes',
   '/usr/lib/python3/dist-packages/cryptography/hazmat/backends/openssl/hashes.py',
   'PYMODULE'),
  ('cryptography.hazmat.backends.openssl.hmac',
   '/usr/lib/python3/dist-packages/cryptography/hazmat/backends/openssl/hmac.py',
   'PYMODULE'),
  ('cryptography.hazmat.backends.openssl.ocsp',
   '/usr/lib/python3/dist-packages/cryptography/hazmat/backends/openssl/ocsp.py',
   'PYMODULE'),
  ('cryptography.hazmat.backends.openssl.poly1305',
   '/usr/lib/python3/dist-packages/cryptography/hazmat/backends/openssl/poly1305.py',
   'PYMODULE'),
  ('cryptography.hazmat.backends.openssl.rsa',
   '/usr/lib/python3/dist-packages/cryptography/hazmat/backends/openssl/rsa.py',
   'PYMODULE'),
  ('cryptography.hazmat.backends.openssl.utils',
   '/usr/lib/python3/dist-packages/cryptography/hazmat/backends/openssl/utils.py',
   'PYMODULE'),
  ('cryptography.hazmat.backends.openssl.x25519',
   '/usr/lib/python3/dist-packages/cryptography/hazmat/backends/openssl/x25519.py',
   'PYMODULE'),
  ('cryptography.hazmat.backends.openssl.x448',
   '/usr/lib/python3/dist-packages/cryptography/hazmat/backends/openssl/x448.py',
   'PYMODULE'),
  ('cryptography.hazmat.backends.openssl.x509',
   '/usr/lib/python3/dist-packages/cryptography/hazmat/backends/openssl/x509.py',
   'PYMODULE'),
  ('cryptography.hazmat.bindings',
   '/usr/lib/python3/dist-packages/cryptography/hazmat/bindings/__init__.py',
   'PYMODULE'),
  ('cryptography.hazmat.bindings.openssl',
   '/usr/lib/python3/dist-packages/cryptography/hazmat/bindings/openssl/__init__.py',
   'PYMODULE'),
  ('cryptography.hazmat.bindings.openssl._conditional',
   '/usr/lib/python3/dist-packages/cryptography/hazmat/bindings/openssl/_conditional.py',
   'PYMODULE'),
  ('cryptography.hazmat.bindings.openssl.binding',
   '/usr/lib/python3/dist-packages/cryptography/hazmat/bindings/openssl/binding.py',
   'PYMODULE'),
  ('cryptography.hazmat.primitives',
   '/usr/lib/python3/dist-packages/cryptography/hazmat/primitives/__init__.py',
   'PYMODULE'),
  ('cryptography.hazmat.primitives._asymmetric',
   '/usr/lib/python3/dist-packages/cryptography/hazmat/primitives/_asymmetric.py',
   'PYMODULE'),
  ('cryptography.hazmat.primitives._cipheralgorithm',
   '/usr/lib/python3/dist-packages/cryptography/hazmat/primitives/_cipheralgorithm.py',
   'PYMODULE'),
  ('cryptography.hazmat.primitives._serialization',
   '/usr/lib/python3/dist-packages/cryptography/hazmat/primitives/_serialization.py',
   'PYMODULE'),
  ('cryptography.hazmat.primitives.asymmetric',
   '/usr/lib/python3/dist-packages/cryptography/hazmat/primitives/asymmetric/__init__.py',
   'PYMODULE'),
  ('cryptography.hazmat.primitives.asymmetric.dh',
   '/usr/lib/python3/dist-packages/cryptography/hazmat/primitives/asymmetric/dh.py',
   'PYMODULE'),
  ('cryptography.hazmat.primitives.asymmetric.dsa',
   '/usr/lib/python3/dist-packages/cryptography/hazmat/primitives/asymmetric/dsa.py',
   'PYMODULE'),
  ('cryptography.hazmat.primitives.asymmetric.ec',
   '/usr/lib/python3/dist-packages/cryptography/hazmat/primitives/asymmetric/ec.py',
   'PYMODULE'),
  ('cryptography.hazmat.primitives.asymmetric.ed25519',
   '/usr/lib/python3/dist-packages/cryptography/hazmat/primitives/asymmetric/ed25519.py',
   'PYMODULE'),
  ('cryptography.hazmat.primitives.asymmetric.ed448',
   '/usr/lib/python3/dist-packages/cryptography/hazmat/primitives/asymmetric/ed448.py',
   'PYMODULE'),
  ('cryptography.hazmat.primitives.asymmetric.padding',
   '/usr/lib/python3/dist-packages/cryptography/hazmat/primitives/asymmetric/padding.py',
   'PYMODULE'),
  ('cryptography.hazmat.primitives.asymmetric.rsa',
   '/usr/lib/python3/dist-packages/cryptography/hazmat/primitives/asymmetric/rsa.py',
   'PYMODULE'),
  ('cryptography.hazmat.primitives.asymmetric.utils',
   '/usr/lib/python3/dist-packages/cryptography/hazmat/primitives/asymmetric/utils.py',
   'PYMODULE'),
  ('cryptography.hazmat.primitives.asymmetric.x25519',
   '/usr/lib/python3/dist-packages/cryptography/hazmat/primitives/asymmetric/x25519.py',
   'PYMODULE'),
  ('cryptography.hazmat.primitives.asymmetric.x448',
   '/usr/lib/python3/dist-packages/cryptography/hazmat/primitives/asymmetric/x448.py',
   'PYMODULE'),
  ('cryptography.hazmat.primitives.ciphers',
   '/usr/lib/python3/dist-packages/cryptography/hazmat/primitives/ciphers/__init__.py',
   'PYMODULE'),
  ('cryptography.hazmat.primitives.ciphers.aead',
   '/usr/lib/python3/dist-packages/cryptography/hazmat/primitives/ciphers/aead.py',
   'PYMODULE'),
  ('cryptography.hazmat.primitives.ciphers.algorithms',
   '/usr/lib/python3/dist-packages/cryptography/hazmat/primitives/ciphers/algorithms.py',
   'PYMODULE'),
  ('cryptography.hazmat.primitives.ciphers.base',
   '/usr/lib/python3/dist-packages/cryptography/hazmat/primitives/ciphers/base.py',
   'PYMODULE'),
  ('cryptography.hazmat.primitives.ciphers.modes',
   '/usr/lib/python3/dist-packages/cryptography/hazmat/primitives/ciphers/modes.py',
   'PYMODULE'),
  ('cryptography.hazmat.primitives.constant_time',
   '/usr/lib/python3/dist-packages/cryptography/hazmat/primitives/constant_time.py',
   'PYMODULE'),
  ('cryptography.hazmat.primitives.hashes',
   '/usr/lib/python3/dist-packages/cryptography/hazmat/primitives/hashes.py',
   'PYMODULE'),
  ('cryptography.hazmat.primitives.kdf',
   '/usr/lib/python3/dist-packages/cryptography/hazmat/primitives/kdf/__init__.py',
   'PYMODULE'),
  ('cryptography.hazmat.primitives.kdf.scrypt',
   '/usr/lib/python3/dist-packages/cryptography/hazmat/primitives/kdf/scrypt.py',
   'PYMODULE'),
  ('cryptography.hazmat.primitives.serialization',
   '/usr/lib/python3/dist-packages/cryptography/hazmat/primitives/serialization/__init__.py',
   'PYMODULE'),
  ('cryptography.hazmat.primitives.serialization.base',
   '/usr/lib/python3/dist-packages/cryptography/hazmat/primitives/serialization/base.py',
   'PYMODULE'),
  ('cryptography.hazmat.primitives.serialization.pkcs7',
   '/usr/lib/python3/dist-packages/cryptography/hazmat/primitives/serialization/pkcs7.py',
   'PYMODULE'),
  ('cryptography.hazmat.primitives.serialization.ssh',
   '/usr/lib/python3/dist-packages/cryptography/hazmat/primitives/serialization/ssh.py',
   'PYMODULE'),
  ('cryptography.utils',
   '/usr/lib/python3/dist-packages/cryptography/utils.py',
   'PYMODULE'),
  ('cryptography.x509',
   '/usr/lib/python3/dist-packages/cryptography/x509/__init__.py',
   'PYMODULE'),
  ('cryptography.x509.base',
   '/usr/lib/python3/dist-packages/cryptography/x509/base.py',
   'PYMODULE'),
  ('cryptography.x509.certificate_transparency',
   '/usr/lib/python3/dist-packages/cryptography/x509/certificate_transparency.py',
   'PYMODULE'),
  ('cryptography.x509.extensions',
   '/usr/lib/python3/dist-packages/cryptography/x509/extensions.py',
   'PYMODULE'),
  ('cryptography.x509.general_name',
   '/usr/lib/python3/dist-packages/cryptography/x509/general_name.py',
   'PYMODULE'),
  ('cryptography.x509.name',
   '/usr/lib/python3/dist-packages/cryptography/x509/name.py',
   'PYMODULE'),
  ('cryptography.x509.ocsp',
   '/usr/lib/python3/dist-packages/cryptography/x509/ocsp.py',
   'PYMODULE'),
  ('cryptography.x509.oid',
   '/usr/lib/python3/dist-packages/cryptography/x509/oid.py',
   'PYMODULE'),
  ('csv', '/usr/lib/python3.10/csv.py', 'PYMODULE'),
  ('ctypes', '/usr/lib/python3.10/ctypes/__init__.py', 'PYMODULE'),
  ('ctypes._endian', '/usr/lib/python3.10/ctypes/_endian.py', 'PYMODULE'),
  ('dataclasses', '/usr/lib/python3.10/dataclasses.py', 'PYMODULE'),
  ('datetime', '/usr/lib/python3.10/datetime.py', 'PYMODULE'),
  ('decimal', '/usr/lib/python3.10/decimal.py', 'PYMODULE'),
  ('dis', '/usr/lib/python3.10/dis.py', 'PYMODULE'),
  ('email', '/usr/lib/python3.10/email/__init__.py', 'PYMODULE'),
  ('email._encoded_words',
   '/usr/lib/python3.10/email/_encoded_words.py',
   'PYMODULE'),
  ('email._header_value_parser',
   '/usr/lib/python3.10/email/_header_value_parser.py',
   'PYMODULE'),
  ('email._parseaddr', '/usr/lib/python3.10/email/_parseaddr.py', 'PYMODULE'),
  ('email._policybase', '/usr/lib/python3.10/email/_policybase.py', 'PYMODULE'),
  ('email.base64mime', '/usr/lib/python3.10/email/base64mime.py', 'PYMODULE'),
  ('email.charset', '/usr/lib/python3.10/email/charset.py', 'PYMODULE'),
  ('email.contentmanager',
   '/usr/lib/python3.10/email/contentmanager.py',
   'PYMODULE'),
  ('email.encoders', '/usr/lib/python3.10/email/encoders.py', 'PYMODULE'),
  ('email.errors', '/usr/lib/python3.10/email/errors.py', 'PYMODULE'),
  ('email.feedparser', '/usr/lib/python3.10/email/feedparser.py', 'PYMODULE'),
  ('email.generator', '/usr/lib/python3.10/email/generator.py', 'PYMODULE'),
  ('email.header', '/usr/lib/python3.10/email/header.py', 'PYMODULE'),
  ('email.headerregistry',
   '/usr/lib/python3.10/email/headerregistry.py',
   'PYMODULE'),
  ('email.iterators', '/usr/lib/python3.10/email/iterators.py', 'PYMODULE'),
  ('email.message', '/usr/lib/python3.10/email/message.py', 'PYMODULE'),
  ('email.parser', '/usr/lib/python3.10/email/parser.py', 'PYMODULE'),
  ('email.policy', '/usr/lib/python3.10/email/policy.py', 'PYMODULE'),
  ('email.quoprimime', '/usr/lib/python3.10/email/quoprimime.py', 'PYMODULE'),
  ('email.utils', '/usr/lib/python3.10/email/utils.py', 'PYMODULE'),
  ('fractions', '/usr/lib/python3.10/fractions.py', 'PYMODULE'),
  ('ftplib', '/usr/lib/python3.10/ftplib.py', 'PYMODULE'),
  ('getopt', '/usr/lib/python3.10/getopt.py', 'PYMODULE'),
  ('getpass', '/usr/lib/python3.10/getpass.py', 'PYMODULE'),
  ('gettext', '/usr/lib/python3.10/gettext.py', 'PYMODULE'),
  ('gzip', '/usr/lib/python3.10/gzip.py', 'PYMODULE'),
  ('hashlib', '/usr/lib/python3.10/hashlib.py', 'PYMODULE'),
  ('hmac', '/usr/lib/python3.10/hmac.py', 'PYMODULE'),
  ('http', '/usr/lib/python3.10/http/__init__.py', 'PYMODULE'),
  ('http.client', '/usr/lib/python3.10/http/client.py', 'PYMODULE'),
  ('http.cookiejar', '/usr/lib/python3.10/http/cookiejar.py', 'PYMODULE'),
  ('http.cookies', '/usr/lib/python3.10/http/cookies.py', 'PYMODULE'),
  ('idna', '/usr/lib/python3/dist-packages/idna/__init__.py', 'PYMODULE'),
  ('idna.core', '/usr/lib/python3/dist-packages/idna/core.py', 'PYMODULE'),
  ('idna.idnadata',
   '/usr/lib/python3/dist-packages/idna/idnadata.py',
   'PYMODULE'),
  ('idna.intranges',
   '/usr/lib/python3/dist-packages/idna/intranges.py',
   'PYMODULE'),
  ('idna.package_data',
   '/usr/lib/python3/dist-packages/idna/package_data.py',
   'PYMODULE'),
  ('idna.uts46data',
   '/usr/lib/python3/dist-packages/idna/uts46data.py',
   'PYMODULE'),
  ('importlib', '/usr/lib/python3.10/importlib/__init__.py', 'PYMODULE'),
  ('importlib._abc', '/usr/lib/python3.10/importlib/_abc.py', 'PYMODULE'),
  ('importlib._adapters',
   '/usr/lib/python3.10/importlib/_adapters.py',
   'PYMODULE'),
  ('importlib._bootstrap',
   '/usr/lib/python3.10/importlib/_bootstrap.py',
   'PYMODULE'),
  ('importlib._bootstrap_external',
   '/usr/lib/python3.10/importlib/_bootstrap_external.py',
   'PYMODULE'),
  ('importlib._common', '/usr/lib/python3.10/importlib/_common.py', 'PYMODULE'),
  ('importlib.abc', '/usr/lib/python3.10/importlib/abc.py', 'PYMODULE'),
  ('importlib.machinery',
   '/usr/lib/python3.10/importlib/machinery.py',
   'PYMODULE'),
  ('importlib.metadata',
   '/usr/lib/python3.10/importlib/metadata/__init__.py',
   'PYMODULE'),
  ('importlib.metadata._adapters',
   '/usr/lib/python3.10/importlib/metadata/_adapters.py',
   'PYMODULE'),
  ('importlib.metadata._collections',
   '/usr/lib/python3.10/importlib/metadata/_collections.py',
   'PYMODULE'),
  ('importlib.metadata._functools',
   '/usr/lib/python3.10/importlib/metadata/_functools.py',
   'PYMODULE'),
  ('importlib.metadata._itertools',
   '/usr/lib/python3.10/importlib/metadata/_itertools.py',
   'PYMODULE'),
  ('importlib.metadata._meta',
   '/usr/lib/python3.10/importlib/metadata/_meta.py',
   'PYMODULE'),
  ('importlib.metadata._text',
   '/usr/lib/python3.10/importlib/metadata/_text.py',
   'PYMODULE'),
  ('importlib.readers', '/usr/lib/python3.10/importlib/readers.py', 'PYMODULE'),
  ('importlib.resources',
   '/usr/lib/python3.10/importlib/resources.py',
   'PYMODULE'),
  ('importlib.util', '/usr/lib/python3.10/importlib/util.py', 'PYMODULE'),
  ('inspect', '/usr/lib/python3.10/inspect.py', 'PYMODULE'),
  ('ipaddress', '/usr/lib/python3.10/ipaddress.py', 'PYMODULE'),
  ('json', '/usr/lib/python3.10/json/__init__.py', 'PYMODULE'),
  ('json.decoder', '/usr/lib/python3.10/json/decoder.py', 'PYMODULE'),
  ('json.encoder', '/usr/lib/python3.10/json/encoder.py', 'PYMODULE'),
  ('json.scanner', '/usr/lib/python3.10/json/scanner.py', 'PYMODULE'),
  ('logging', '/usr/lib/python3.10/logging/__init__.py', 'PYMODULE'),
  ('lzma', '/usr/lib/python3.10/lzma.py', 'PYMODULE'),
  ('mimetypes', '/usr/lib/python3.10/mimetypes.py', 'PYMODULE'),
  ('more_itertools',
   '/usr/lib/python3/dist-packages/more_itertools/__init__.py',
   'PYMODULE'),
  ('more_itertools.more',
   '/usr/lib/python3/dist-packages/more_itertools/more.py',
   'PYMODULE'),
  ('more_itertools.recipes',
   '/usr/lib/python3/dist-packages/more_itertools/recipes.py',
   'PYMODULE'),
  ('multiprocessing',
   '/usr/lib/python3.10/multiprocessing/__init__.py',
   'PYMODULE'),
  ('multiprocessing.connection',
   '/usr/lib/python3.10/multiprocessing/connection.py',
   'PYMODULE'),
  ('multiprocessing.context',
   '/usr/lib/python3.10/multiprocessing/context.py',
   'PYMODULE'),
  ('multiprocessing.dummy',
   '/usr/lib/python3.10/multiprocessing/dummy/__init__.py',
   'PYMODULE'),
  ('multiprocessing.dummy.connection',
   '/usr/lib/python3.10/multiprocessing/dummy/connection.py',
   'PYMODULE'),
  ('multiprocessing.forkserver',
   '/usr/lib/python3.10/multiprocessing/forkserver.py',
   'PYMODULE'),
  ('multiprocessing.heap',
   '/usr/lib/python3.10/multiprocessing/heap.py',
   'PYMODULE'),
  ('multiprocessing.managers',
   '/usr/lib/python3.10/multiprocessing/managers.py',
   'PYMODULE'),
  ('multiprocessing.pool',
   '/usr/lib/python3.10/multiprocessing/pool.py',
   'PYMODULE'),
  ('multiprocessing.popen_fork',
   '/usr/lib/python3.10/multiprocessing/popen_fork.py',
   'PYMODULE'),
  ('multiprocessing.popen_forkserver',
   '/usr/lib/python3.10/multiprocessing/popen_forkserver.py',
   'PYMODULE'),
  ('multiprocessing.popen_spawn_posix',
   '/usr/lib/python3.10/multiprocessing/popen_spawn_posix.py',
   'PYMODULE'),
  ('multiprocessing.popen_spawn_win32',
   '/usr/lib/python3.10/multiprocessing/popen_spawn_win32.py',
   'PYMODULE'),
  ('multiprocessing.process',
   '/usr/lib/python3.10/multiprocessing/process.py',
   'PYMODULE'),
  ('multiprocessing.queues',
   '/usr/lib/python3.10/multiprocessing/queues.py',
   'PYMODULE'),
  ('multiprocessing.reduction',
   '/usr/lib/python3.10/multiprocessing/reduction.py',
   'PYMODULE'),
  ('multiprocessing.resource_sharer',
   '/usr/lib/python3.10/multiprocessing/resource_sharer.py',
   'PYMODULE'),
  ('multiprocessing.resource_tracker',
   '/usr/lib/python3.10/multiprocessing/resource_tracker.py',
   'PYMODULE'),
  ('multiprocessing.shared_memory',
   '/usr/lib/python3.10/multiprocessing/shared_memory.py',
   'PYMODULE'),
  ('multiprocessing.sharedctypes',
   '/usr/lib/python3.10/multiprocessing/sharedctypes.py',
   'PYMODULE'),
  ('multiprocessing.spawn',
   '/usr/lib/python3.10/multiprocessing/spawn.py',
   'PYMODULE'),
  ('multiprocessing.synchronize',
   '/usr/lib/python3.10/multiprocessing/synchronize.py',
   'PYMODULE'),
  ('multiprocessing.util',
   '/usr/lib/python3.10/multiprocessing/util.py',
   'PYMODULE'),
  ('mysql',
   '/usr/local/lib/python3.10/dist-packages/mysql/__init__.py',
   'PYMODULE'),
  ('mysql.connector',
   '/usr/local/lib/python3.10/dist-packages/mysql/connector/__init__.py',
   'PYMODULE'),
  ('mysql.connector.abstracts',
   '/usr/local/lib/python3.10/dist-packages/mysql/connector/abstracts.py',
   'PYMODULE'),
  ('mysql.connector.authentication',
   '/usr/local/lib/python3.10/dist-packages/mysql/connector/authentication.py',
   'PYMODULE'),
  ('mysql.connector.charsets',
   '/usr/local/lib/python3.10/dist-packages/mysql/connector/charsets.py',
   'PYMODULE'),
  ('mysql.connector.connection',
   '/usr/local/lib/python3.10/dist-packages/mysql/connector/connection.py',
   'PYMODULE'),
  ('mysql.connector.connection_cext',
   '/usr/local/lib/python3.10/dist-packages/mysql/connector/connection_cext.py',
   'PYMODULE'),
  ('mysql.connector.constants',
   '/usr/local/lib/python3.10/dist-packages/mysql/connector/constants.py',
   'PYMODULE'),
  ('mysql.connector.conversion',
   '/usr/local/lib/python3.10/dist-packages/mysql/connector/conversion.py',
   'PYMODULE'),
  ('mysql.connector.cursor',
   '/usr/local/lib/python3.10/dist-packages/mysql/connector/cursor.py',
   'PYMODULE'),
  ('mysql.connector.cursor_cext',
   '/usr/local/lib/python3.10/dist-packages/mysql/connector/cursor_cext.py',
   'PYMODULE'),
  ('mysql.connector.custom_types',
   '/usr/local/lib/python3.10/dist-packages/mysql/connector/custom_types.py',
   'PYMODULE'),
  ('mysql.connector.dbapi',
   '/usr/local/lib/python3.10/dist-packages/mysql/connector/dbapi.py',
   'PYMODULE'),
  ('mysql.connector.errorcode',
   '/usr/local/lib/python3.10/dist-packages/mysql/connector/errorcode.py',
   'PYMODULE'),
  ('mysql.connector.errors',
   '/usr/local/lib/python3.10/dist-packages/mysql/connector/errors.py',
   'PYMODULE'),
  ('mysql.connector.locales',
   '/usr/local/lib/python3.10/dist-packages/mysql/connector/locales/__init__.py',
   'PYMODULE'),
  ('mysql.connector.logger',
   '/usr/local/lib/python3.10/dist-packages/mysql/connector/logger.py',
   'PYMODULE'),
  ('mysql.connector.network',
   '/usr/local/lib/python3.10/dist-packages/mysql/connector/network.py',
   'PYMODULE'),
  ('mysql.connector.opentelemetry',
   '/usr/local/lib/python3.10/dist-packages/mysql/connector/opentelemetry/__init__.py',
   'PYMODULE'),
  ('mysql.connector.opentelemetry.constants',
   '/usr/local/lib/python3.10/dist-packages/mysql/connector/opentelemetry/constants.py',
   'PYMODULE'),
  ('mysql.connector.opentelemetry.context_propagation',
   '/usr/local/lib/python3.10/dist-packages/mysql/connector/opentelemetry/context_propagation.py',
   'PYMODULE'),
  ('mysql.connector.opentelemetry.instrumentation',
   '/usr/local/lib/python3.10/dist-packages/mysql/connector/opentelemetry/instrumentation.py',
   'PYMODULE'),
  ('mysql.connector.optionfiles',
   '/usr/local/lib/python3.10/dist-packages/mysql/connector/optionfiles.py',
   'PYMODULE'),
  ('mysql.connector.plugins',
   '/usr/local/lib/python3.10/dist-packages/mysql/connector/plugins/__init__.py',
   'PYMODULE'),
  ('mysql.connector.pooling',
   '/usr/local/lib/python3.10/dist-packages/mysql/connector/pooling.py',
   'PYMODULE'),
  ('mysql.connector.protocol',
   '/usr/local/lib/python3.10/dist-packages/mysql/connector/protocol.py',
   'PYMODULE'),
  ('mysql.connector.types',
   '/usr/local/lib/python3.10/dist-packages/mysql/connector/types.py',
   'PYMODULE'),
  ('mysql.connector.utils',
   '/usr/local/lib/python3.10/dist-packages/mysql/connector/utils.py',
   'PYMODULE'),
  ('mysql.connector.version',
   '/usr/local/lib/python3.10/dist-packages/mysql/connector/version.py',
   'PYMODULE'),
  ('mysql.opentelemetry',
   '/usr/local/lib/python3.10/dist-packages/mysql/opentelemetry/__init__.py',
   'PYMODULE'),
  ('mysql.opentelemetry.attributes',
   '/usr/local/lib/python3.10/dist-packages/mysql/opentelemetry/attributes/__init__.py',
   'PYMODULE'),
  ('mysql.opentelemetry.context',
   '/usr/local/lib/python3.10/dist-packages/mysql/opentelemetry/context/__init__.py',
   'PYMODULE'),
  ('mysql.opentelemetry.context.context',
   '/usr/local/lib/python3.10/dist-packages/mysql/opentelemetry/context/context.py',
   'PYMODULE'),
  ('mysql.opentelemetry.environment_variables',
   '/usr/local/lib/python3.10/dist-packages/mysql/opentelemetry/environment_variables.py',
   'PYMODULE'),
  ('mysql.opentelemetry.importlib_metadata',
   '/usr/local/lib/python3.10/dist-packages/mysql/opentelemetry/importlib_metadata/__init__.py',
   'PYMODULE'),
  ('mysql.opentelemetry.importlib_metadata._adapters',
   '/usr/local/lib/python3.10/dist-packages/mysql/opentelemetry/importlib_metadata/_adapters.py',
   'PYMODULE'),
  ('mysql.opentelemetry.importlib_metadata._collections',
   '/usr/local/lib/python3.10/dist-packages/mysql/opentelemetry/importlib_metadata/_collections.py',
   'PYMODULE'),
  ('mysql.opentelemetry.importlib_metadata._compat',
   '/usr/local/lib/python3.10/dist-packages/mysql/opentelemetry/importlib_metadata/_compat.py',
   'PYMODULE'),
  ('mysql.opentelemetry.importlib_metadata._functools',
   '/usr/local/lib/python3.10/dist-packages/mysql/opentelemetry/importlib_metadata/_functools.py',
   'PYMODULE'),
  ('mysql.opentelemetry.importlib_metadata._itertools',
   '/usr/local/lib/python3.10/dist-packages/mysql/opentelemetry/importlib_metadata/_itertools.py',
   'PYMODULE'),
  ('mysql.opentelemetry.importlib_metadata._meta',
   '/usr/local/lib/python3.10/dist-packages/mysql/opentelemetry/importlib_metadata/_meta.py',
   'PYMODULE'),
  ('mysql.opentelemetry.importlib_metadata._py39compat',
   '/usr/local/lib/python3.10/dist-packages/mysql/opentelemetry/importlib_metadata/_py39compat.py',
   'PYMODULE'),
  ('mysql.opentelemetry.importlib_metadata._text',
   '/usr/local/lib/python3.10/dist-packages/mysql/opentelemetry/importlib_metadata/_text.py',
   'PYMODULE'),
  ('mysql.opentelemetry.metrics',
   '/usr/local/lib/python3.10/dist-packages/mysql/opentelemetry/metrics/__init__.py',
   'PYMODULE'),
  ('mysql.opentelemetry.metrics._internal',
   '/usr/local/lib/python3.10/dist-packages/mysql/opentelemetry/metrics/_internal/__init__.py',
   'PYMODULE'),
  ('mysql.opentelemetry.metrics._internal.instrument',
   '/usr/local/lib/python3.10/dist-packages/mysql/opentelemetry/metrics/_internal/instrument.py',
   'PYMODULE'),
  ('mysql.opentelemetry.metrics._internal.observation',
   '/usr/local/lib/python3.10/dist-packages/mysql/opentelemetry/metrics/_internal/observation.py',
   'PYMODULE'),
  ('mysql.opentelemetry.sdk',
   '/usr/local/lib/python3.10/dist-packages/mysql/opentelemetry/sdk/__init__.py',
   'PYMODULE'),
  ('mysql.opentelemetry.sdk.environment_variables',
   '/usr/local/lib/python3.10/dist-packages/mysql/opentelemetry/sdk/environment_variables.py',
   'PYMODULE'),
  ('mysql.opentelemetry.sdk.resources',
   '/usr/local/lib/python3.10/dist-packages/mysql/opentelemetry/sdk/resources/__init__.py',
   'PYMODULE'),
  ('mysql.opentelemetry.sdk.trace',
   '/usr/local/lib/python3.10/dist-packages/mysql/opentelemetry/sdk/trace/__init__.py',
   'PYMODULE'),
  ('mysql.opentelemetry.sdk.trace.id_generator',
   '/usr/local/lib/python3.10/dist-packages/mysql/opentelemetry/sdk/trace/id_generator.py',
   'PYMODULE'),
  ('mysql.opentelemetry.sdk.trace.sampling',
   '/usr/local/lib/python3.10/dist-packages/mysql/opentelemetry/sdk/trace/sampling.py',
   'PYMODULE'),
  ('mysql.opentelemetry.sdk.util',
   '/usr/local/lib/python3.10/dist-packages/mysql/opentelemetry/sdk/util/__init__.py',
   'PYMODULE'),
  ('mysql.opentelemetry.sdk.util.instrumentation',
   '/usr/local/lib/python3.10/dist-packages/mysql/opentelemetry/sdk/util/instrumentation.py',
   'PYMODULE'),
  ('mysql.opentelemetry.semconv',
   '/usr/local/lib/python3.10/dist-packages/mysql/opentelemetry/semconv/__init__.py',
   'PYMODULE'),
  ('mysql.opentelemetry.semconv.resource',
   '/usr/local/lib/python3.10/dist-packages/mysql/opentelemetry/semconv/resource/__init__.py',
   'PYMODULE'),
  ('mysql.opentelemetry.semconv.trace',
   '/usr/local/lib/python3.10/dist-packages/mysql/opentelemetry/semconv/trace/__init__.py',
   'PYMODULE'),
  ('mysql.opentelemetry.trace',
   '/usr/local/lib/python3.10/dist-packages/mysql/opentelemetry/trace/__init__.py',
   'PYMODULE'),
  ('mysql.opentelemetry.trace.propagation',
   '/usr/local/lib/python3.10/dist-packages/mysql/opentelemetry/trace/propagation/__init__.py',
   'PYMODULE'),
  ('mysql.opentelemetry.trace.span',
   '/usr/local/lib/python3.10/dist-packages/mysql/opentelemetry/trace/span.py',
   'PYMODULE'),
  ('mysql.opentelemetry.trace.status',
   '/usr/local/lib/python3.10/dist-packages/mysql/opentelemetry/trace/status.py',
   'PYMODULE'),
  ('mysql.opentelemetry.util',
   '/usr/local/lib/python3.10/dist-packages/mysql/opentelemetry/util/__init__.py',
   'PYMODULE'),
  ('mysql.opentelemetry.util._importlib_metadata',
   '/usr/local/lib/python3.10/dist-packages/mysql/opentelemetry/util/_importlib_metadata.py',
   'PYMODULE'),
  ('mysql.opentelemetry.util._once',
   '/usr/local/lib/python3.10/dist-packages/mysql/opentelemetry/util/_once.py',
   'PYMODULE'),
  ('mysql.opentelemetry.util._providers',
   '/usr/local/lib/python3.10/dist-packages/mysql/opentelemetry/util/_providers.py',
   'PYMODULE'),
  ('mysql.opentelemetry.util.types',
   '/usr/local/lib/python3.10/dist-packages/mysql/opentelemetry/util/types.py',
   'PYMODULE'),
  ('netrc', '/usr/lib/python3.10/netrc.py', 'PYMODULE'),
  ('nturl2path', '/usr/lib/python3.10/nturl2path.py', 'PYMODULE'),
  ('numbers', '/usr/lib/python3.10/numbers.py', 'PYMODULE'),
  ('opcode', '/usr/lib/python3.10/opcode.py', 'PYMODULE'),
  ('optparse', '/usr/lib/python3.10/optparse.py', 'PYMODULE'),
  ('pickle', '/usr/lib/python3.10/pickle.py', 'PYMODULE'),
  ('pkgutil', '/usr/lib/python3.10/pkgutil.py', 'PYMODULE'),
  ('platform', '/usr/lib/python3.10/platform.py', 'PYMODULE'),
  ('pprint', '/usr/lib/python3.10/pprint.py', 'PYMODULE'),
  ('py_compile', '/usr/lib/python3.10/py_compile.py', 'PYMODULE'),
  ('queue', '/usr/lib/python3.10/queue.py', 'PYMODULE'),
  ('quopri', '/usr/lib/python3.10/quopri.py', 'PYMODULE'),
  ('random', '/usr/lib/python3.10/random.py', 'PYMODULE'),
  ('requests',
   '/usr/lib/python3/dist-packages/requests/__init__.py',
   'PYMODULE'),
  ('requests.__version__',
   '/usr/lib/python3/dist-packages/requests/__version__.py',
   'PYMODULE'),
  ('requests._internal_utils',
   '/usr/lib/python3/dist-packages/requests/_internal_utils.py',
   'PYMODULE'),
  ('requests.adapters',
   '/usr/lib/python3/dist-packages/requests/adapters.py',
   'PYMODULE'),
  ('requests.api',
   '/usr/lib/python3/dist-packages/requests/api.py',
   'PYMODULE'),
  ('requests.auth',
   '/usr/lib/python3/dist-packages/requests/auth.py',
   'PYMODULE'),
  ('requests.certs',
   '/usr/lib/python3/dist-packages/requests/certs.py',
   'PYMODULE'),
  ('requests.compat',
   '/usr/lib/python3/dist-packages/requests/compat.py',
   'PYMODULE'),
  ('requests.cookies',
   '/usr/lib/python3/dist-packages/requests/cookies.py',
   'PYMODULE'),
  ('requests.exceptions',
   '/usr/lib/python3/dist-packages/requests/exceptions.py',
   'PYMODULE'),
  ('requests.hooks',
   '/usr/lib/python3/dist-packages/requests/hooks.py',
   'PYMODULE'),
  ('requests.models',
   '/usr/lib/python3/dist-packages/requests/models.py',
   'PYMODULE'),
  ('requests.packages',
   '/usr/lib/python3/dist-packages/requests/packages.py',
   'PYMODULE'),
  ('requests.sessions',
   '/usr/lib/python3/dist-packages/requests/sessions.py',
   'PYMODULE'),
  ('requests.status_codes',
   '/usr/lib/python3/dist-packages/requests/status_codes.py',
   'PYMODULE'),
  ('requests.structures',
   '/usr/lib/python3/dist-packages/requests/structures.py',
   'PYMODULE'),
  ('requests.utils',
   '/usr/lib/python3/dist-packages/requests/utils.py',
   'PYMODULE'),
  ('runpy', '/usr/lib/python3.10/runpy.py', 'PYMODULE'),
  ('secrets', '/usr/lib/python3.10/secrets.py', 'PYMODULE'),
  ('selectors', '/usr/lib/python3.10/selectors.py', 'PYMODULE'),
  ('shlex', '/usr/lib/python3.10/shlex.py', 'PYMODULE'),
  ('shutil', '/usr/lib/python3.10/shutil.py', 'PYMODULE'),
  ('signal', '/usr/lib/python3.10/signal.py', 'PYMODULE'),
  ('six', '/usr/lib/python3/dist-packages/six.py', 'PYMODULE'),
  ('socket', '/usr/lib/python3.10/socket.py', 'PYMODULE'),
  ('ssl', '/usr/lib/python3.10/ssl.py', 'PYMODULE'),
  ('statistics', '/usr/lib/python3.10/statistics.py', 'PYMODULE'),
  ('string', '/usr/lib/python3.10/string.py', 'PYMODULE'),
  ('stringprep', '/usr/lib/python3.10/stringprep.py', 'PYMODULE'),
  ('subprocess', '/usr/lib/python3.10/subprocess.py', 'PYMODULE'),
  ('tarfile', '/usr/lib/python3.10/tarfile.py', 'PYMODULE'),
  ('tempfile', '/usr/lib/python3.10/tempfile.py', 'PYMODULE'),
  ('textwrap', '/usr/lib/python3.10/textwrap.py', 'PYMODULE'),
  ('threading', '/usr/lib/python3.10/threading.py', 'PYMODULE'),
  ('tracemalloc', '/usr/lib/python3.10/tracemalloc.py', 'PYMODULE'),
  ('typing', '/usr/lib/python3.10/typing.py', 'PYMODULE'),
  ('urllib3', '/usr/lib/python3/dist-packages/urllib3/__init__.py', 'PYMODULE'),
  ('urllib3._collections',
   '/usr/lib/python3/dist-packages/urllib3/_collections.py',
   'PYMODULE'),
  ('urllib3._version',
   '/usr/lib/python3/dist-packages/urllib3/_version.py',
   'PYMODULE'),
  ('urllib3.connection',
   '/usr/lib/python3/dist-packages/urllib3/connection.py',
   'PYMODULE'),
  ('urllib3.connectionpool',
   '/usr/lib/python3/dist-packages/urllib3/connectionpool.py',
   'PYMODULE'),
  ('urllib3.contrib',
   '/usr/lib/python3/dist-packages/urllib3/contrib/__init__.py',
   'PYMODULE'),
  ('urllib3.contrib._appengine_environ',
   '/usr/lib/python3/dist-packages/urllib3/contrib/_appengine_environ.py',
   'PYMODULE'),
  ('urllib3.contrib.pyopenssl',
   '/usr/lib/python3/dist-packages/urllib3/contrib/pyopenssl.py',
   'PYMODULE'),
  ('urllib3.contrib.socks',
   '/usr/lib/python3/dist-packages/urllib3/contrib/socks.py',
   'PYMODULE'),
  ('urllib3.exceptions',
   '/usr/lib/python3/dist-packages/urllib3/exceptions.py',
   'PYMODULE'),
  ('urllib3.fields',
   '/usr/lib/python3/dist-packages/urllib3/fields.py',
   'PYMODULE'),
  ('urllib3.filepost',
   '/usr/lib/python3/dist-packages/urllib3/filepost.py',
   'PYMODULE'),
  ('urllib3.packages',
   '/usr/lib/python3/dist-packages/urllib3/packages/__init__.py',
   'PYMODULE'),
  ('urllib3.packages.backports',
   '/usr/lib/python3/dist-packages/urllib3/packages/backports/__init__.py',
   'PYMODULE'),
  ('urllib3.packages.backports.makefile',
   '/usr/lib/python3/dist-packages/urllib3/packages/backports/makefile.py',
   'PYMODULE'),
  ('urllib3.packages.ssl_match_hostname',
   '/usr/lib/python3/dist-packages/urllib3/packages/ssl_match_hostname/__init__.py',
   'PYMODULE'),
  ('urllib3.packages.ssl_match_hostname._implementation',
   '/usr/lib/python3/dist-packages/urllib3/packages/ssl_match_hostname/_implementation.py',
   'PYMODULE'),
  ('urllib3.poolmanager',
   '/usr/lib/python3/dist-packages/urllib3/poolmanager.py',
   'PYMODULE'),
  ('urllib3.request',
   '/usr/lib/python3/dist-packages/urllib3/request.py',
   'PYMODULE'),
  ('urllib3.response',
   '/usr/lib/python3/dist-packages/urllib3/response.py',
   'PYMODULE'),
  ('urllib3.util',
   '/usr/lib/python3/dist-packages/urllib3/util/__init__.py',
   'PYMODULE'),
  ('urllib3.util.connection',
   '/usr/lib/python3/dist-packages/urllib3/util/connection.py',
   'PYMODULE'),
  ('urllib3.util.proxy',
   '/usr/lib/python3/dist-packages/urllib3/util/proxy.py',
   'PYMODULE'),
  ('urllib3.util.queue',
   '/usr/lib/python3/dist-packages/urllib3/util/queue.py',
   'PYMODULE'),
  ('urllib3.util.request',
   '/usr/lib/python3/dist-packages/urllib3/util/request.py',
   'PYMODULE'),
  ('urllib3.util.response',
   '/usr/lib/python3/dist-packages/urllib3/util/response.py',
   'PYMODULE'),
  ('urllib3.util.retry',
   '/usr/lib/python3/dist-packages/urllib3/util/retry.py',
   'PYMODULE'),
  ('urllib3.util.ssl_',
   '/usr/lib/python3/dist-packages/urllib3/util/ssl_.py',
   'PYMODULE'),
  ('urllib3.util.ssltransport',
   '/usr/lib/python3/dist-packages/urllib3/util/ssltransport.py',
   'PYMODULE'),
  ('urllib3.util.timeout',
   '/usr/lib/python3/dist-packages/urllib3/util/timeout.py',
   'PYMODULE'),
  ('urllib3.util.url',
   '/usr/lib/python3/dist-packages/urllib3/util/url.py',
   'PYMODULE'),
  ('urllib3.util.wait',
   '/usr/lib/python3/dist-packages/urllib3/util/wait.py',
   'PYMODULE'),
  ('uu', '/usr/lib/python3.10/uu.py', 'PYMODULE'),
  ('uuid', '/usr/lib/python3.10/uuid.py', 'PYMODULE'),
  ('xml', '/usr/lib/python3.10/xml/__init__.py', 'PYMODULE'),
  ('xml.parsers', '/usr/lib/python3.10/xml/parsers/__init__.py', 'PYMODULE'),
  ('xml.parsers.expat', '/usr/lib/python3.10/xml/parsers/expat.py', 'PYMODULE'),
  ('xml.sax', '/usr/lib/python3.10/xml/sax/__init__.py', 'PYMODULE'),
  ('xml.sax._exceptions',
   '/usr/lib/python3.10/xml/sax/_exceptions.py',
   'PYMODULE'),
  ('xml.sax.expatreader',
   '/usr/lib/python3.10/xml/sax/expatreader.py',
   'PYMODULE'),
  ('xml.sax.handler', '/usr/lib/python3.10/xml/sax/handler.py', 'PYMODULE'),
  ('xml.sax.saxutils', '/usr/lib/python3.10/xml/sax/saxutils.py', 'PYMODULE'),
  ('xml.sax.xmlreader', '/usr/lib/python3.10/xml/sax/xmlreader.py', 'PYMODULE'),
  ('xmlrpc', '/usr/lib/python3.10/xmlrpc/__init__.py', 'PYMODULE'),
  ('xmlrpc.client', '/usr/lib/python3.10/xmlrpc/client.py', 'PYMODULE'),
  ('zipfile', '/usr/lib/python3.10/zipfile.py', 'PYMODULE'),
  ('zipimport', '/usr/lib/python3.10/zipimport.py', 'PYMODULE'),
  ('zipp', '/usr/lib/python3/dist-packages/zipp.py', 'PYMODULE')])
